105268    C02LA     19920630N43168     
105274    C02LA     19920630N43171     
113226    R05X      19970630N47069     
121915    N02AA     19960331N51025     
121916    N02BE     20010930N51025     
1318078   C02AA     20060119H1082797   
1318079   C02AA     20060119H1082798   
1318080   C02AA     20060119H1082799   
1318198   A06AC     20060119H1082917   
1318199   A06AC     20060119H1082918   
1318200   A06AC     20060119H1082919   
1318201   A06AC     20060119H1082920   
1319054   A06AC     20060119H1083773   
1319055   A06AC     20060119H1083774   
1319420   R         20060119U1084139   
1319421   R         20060119U1084140   
1319422   R         20060119U1084141   
1319423   R         20060119U1084142   
1319641   C02AA     20060119H1084360   
1319642   C02AA     20060119H1084361   
1319834   A06AC     20060119H1084553   
1319835   A06AC     20060119H1084554   
1319891   A06AC     20060119H1084610   
1321459   A06AC     20060119U1086178   
1321460   A06AC     20060119U1086179   
1321461   A06AC     20060119U1086180   
132503    N02BE     20030320N55595     
132504    R05X      20030320N55595     
132506    N02BE     20030320N55596     
132507    R05X      20030320N55596     
132509    N02BE     20030320N55597     
132510    R05X      20030320N55597     
135965    N02BE     20030626Y57203     
135967    N02BE     20030626Y57204     
135969    N02BE     20030626Y57205     
136225    N02BE     20030626Y57333     
139428    R05X      20030630N58905     
139429    N02BE     20030630N58905     
139431    R05X      20030630N58906     
139432    N02BE     20030630N58906     
139434    R05X      20030630N58907     
139435    N02BE     20030630N58907     
140659    N02BE     20030630Y59502     
140661    N02BE     20030630Y59503     
140663    N02BE     20030630Y59504     
140665    N02BE     20030630Y59505     
142155    N02BE     20030630Y60241     
142321    N02BE     20030630Y60324     
143340    N02BE     20030630Y60819     
143570    N02BE     20030630Y55969     
143571    N02BE     20030630Y55970     
153132    N02BE     20040315Y65504     
153134    N02BE     20040315Y65505     
153136    N02BE     20040315Y65506     
153138    N02BE     20040315Y65507     
153140    N02BE     20040315Y65508     
15515     N02BE     19851231Y4762      
15517     N02BE     19851231Y4763      
15519     N02BE     19851231Y4764      
15521     N02BE     19851231Y4765      
15523     N02BE     19851231Y4766      
15525     N02BE     19851231Y4767      
15527     N02BE     19851231Y4768      
15529     N02BE     19851231Y4769      
15531     N02BE     19851231Y4770      
15533     N02BE     19851231Y4771      
15535     N02BE     19851231Y4772      
15537     N02BE     19851231Y4773      
15571     N02BE     19851231Y4790      
15623     N02BE     19870930Y4816      
15629     N02BE     19870930Y4819      
15637     N02BE     19880331Y4823      
15657     N02BE     19890331Y4833      
15689     N02BE     19891231Y4849      
15697     N02BE     19910630Y4853      
15749     N02BE     19930331Y4879      
15793     N02BE     19940930Y4901      
15819     N02BE     19960331Y4914      
15821     N02BE     19960331Y4915      
15839     N02BE     19961231Y4924      
15843     N02BE     19970331Y4926      
15845     N02BE     19970331Y4927      
15853     N02BE     19971231Y4931      
15861     N02BE     19980630Y4935      
15865     N02BE     19980630Y4937      
15873     N02BE     19980930Y4941      
15891     N02BE     19981231Y4950      
15893     N02BE     19990331Y4951      
159052    N02BE     20040521N68190     
15913     N02BE     19990630Y4961      
15925     N02BE     20000630Y4967      
15933     N02BE     20010331Y4971      
15935     N02BE     20010331Y4972      
160796    R05X      20040614N69036     
160797    N02BE     20040614N69036     
163033    N02BE     20040624Y70144     
163035    N02BE     20040624Y70145     
163037    N02BE     20040624Y70146     
163039    N02BE     20040624Y70147     
163041    N02BE     20040624Y70148     
163043    N02BE     20040624Y70149     
163045    N02BE     20040624Y70150     
163047    N02BE     20040624Y70151     
163049    N02BE     20040624Y70152     
163051    N02BE     20040624Y70153     
163053    N02BE     20040624Y70154     
165937    N02BE     20040831N71515     
166711    N02BE     20040909Y71882     
167473    N02BE     20040913Y72255     
167475    N02BE     20040913Y72256     
167477    N02BE     20040913Y72257     
167479    N02BE     20040913Y72258     
168179    N02BE     20040914Y72608     
168181    N02BE     20040914Y72609     
168801    N02BE     20040915Y72911     
168803    N02BE     20040915Y72912     
168805    N02BE     20040915Y72913     
171392    N02BE     20040921Y74158     
171394    N02BE     20040921Y74159     
172159    N02BE     20040921Y74540     
172161    N02BE     20040921Y74541     
172393    N02BE     20040922Y74647     
172395    N02BE     20040922Y74648     
172397    N02BE     20040922Y74649     
172399    N02BE     20040922Y74650     
172401    N02BE     20040922Y74651     
172403    N02BE     20040922Y74652     
172405    N02BE     20040922Y74653     
188674    N02BE     20041231Y82476     
194808    R05CB     20041231Y85405     
200051    N02BE     20041231Y87551     
200052    N02BE     20041231Y87552     
200053    N02BE     20041231Y87553     
200054    N02BE     20041231Y87554     
200055    N02BE     20041231Y87555     
200056    N02BE     20041231Y87556     
205748    B01AC     20041231Y90683     
225980    N02AA     20041231N105142    
225981    N02BE     20041231N105142    
225984    N02AA     20041231N105144    
225985    N02BE     20041231N105144    
228567    N02BE     20041231N107155    
234335    N02BE     20041231N111886    
240586    C02LA     20041231N117513    
240588    C02LA     20041231N117515    
243791    R05X      20041231N120519    
252974    N02BE     20050331Y126158    
252976    N02BE     20050331Y126159    
255204    N02BE     20050331Y127288    
255206    N02BE     20050331Y127289    
255208    N02BE     20050331Y127290    
257677    N02BE     20050331Y128531    
257679    N02BE     20050331Y128532    
26689     B01AC     19901231Y8755      
26703     B01AC     19901231Y8762      
26745     B01AC     19901231Y8783      
342266    R05       20050617U121229    
342735    R05       20050617U48010     
343345    N02BW     20050617H122306    
344758    A05AW     20050617H49634     
344759    N02BW     20050617H49634     
344760    N02BW     20050617H49635     
345020    A06AC     20050617H62308     
345021    A07BW     20050617H62308     
345265    C02AA     20050617H62437     
352563    V90       20050623N48010     
352729    V90       20050623N49634     
352731    V90       20050623N49635     
352944    V90       20050623N62308     
353113    V90       20050623N62437     
354155    V90       20050623N121229    
354246    V90       20050623N122306    
358485    N02BE     20050630N207302    
358486    R05X      20050630N207302    
358488    N02BE     20050630N207303    
358489    R05X      20050630N207303    
358491    N02BE     20050630N207304    
358492    R05X      20050630N207304    
38960     A06AC     19851231N13610     
38978     A06AC     19870331N13619     
417278    A06AC     20050630U236599    
489806    N02BE     20050823N271148    
489808    N02BE     20050823N271149    
489810    N02BE     20050823N271150    
499391    B01AC     20050927Y275605    
499393    B01AC     20050927Y275606    
499395    B01AC     20050927Y275607    
499397    B01AC     20050927Y275608    
499399    B01AC     20050927Y275609    
499401    B01AC     20050927Y275610    
500134    R05X      20050930N111886    
6148      R05CB     19851231Y1925      
6156      R05CB     19851231Y1929      
6222      R05CB     19980630Y1962      
629249    N02BE     20050930Y402236    
629251    N02BE     20050930Y402237    
71360     N02AA     19960331N27456     
71361     N02BE     19851231N27456     
71366     N02AA     19960331N27458     
71367     N02BE     19901231N27458     
77272     N02BE     19851231N30075     
77302     N02BE     19940930N30090     
90467     N02BE     19891231N36106     
90489     N02BE     19891231N36117     
