0000050555INRESERPINE                                      INN 
0000052288INCODEINE PHOSPHATE                              IPH 
0000058082INCAFFEINE                                       IPH 
0000058322INDIPYRIDAMOLE                                   INN 
0000069227INCAFFEINE CITRATE                                 19
0000090824INPSEUDOEPHEDRINE                                INN 
0000103902INPARACETAMOL                                    INN 
0000113928INCHLORPHENAMINE MALEATE                       05  19
0000125699INDEXTROMETHORPHAN HYDROBROMIDE                  INNM
0000147240INDIPHENHYDRAMINE HYDROCHLORIDE                  INNM
0000345788INPSEUDOEPHEDRINE HYDROCHLORIDE                  INNM
0000611756INBROMHEXINE HYDROCHLORIDE                       INNM
0000636544INCLOPAMIDE                                      INN 
0003572438INBROMHEXINE                                     INN 
8000040382INPSYLLIUM HYDROPHILIC MUCILLOID                   19
8000043869INDIHYDROERGOCRISTINE MESILATE                     17
9003700000INTHYMUS VULGARIS                                UNS 
9010500003INCALENDULA OFFICINALIS EXTRACT                   237
9012300000INCHELIDONIUM MAJUS                              UNS 
9018500003INEUCALYPTUS GLOBULUS EXTRACT                      22
9021000000INGLYCYRRHIZA GLABRA                             UNS 
9021800000INHEDERA HELIX                                     22
9023000007INILLICIUM VERUM OIL                               16
9026300003INMALVA SYLVESTRIS EXTRACT                        237
9026600000INMARRUBIUM VULGARE                                22
9030800007INPIMPINELLA ANISUM OIL                        01  22
9032100000INPLANTAGO OVATA                               99H7  
9032100003INPLANTAGO OVATA EXTRACT                          237
9034500000INRAUWOLFIA SERPENTINA                             22
9037300003INSALVIA OFFICINALIS EXTRACT                      237
