{
    "data": [
        {
            "llt_code": "10005282",
            "llt_name": "Blood acid phosphatase increased",
            "table": "llt",
            "pt_name": "Blood acid phosphatase increased",
            "pt_code": "10005282",
            "hlt_name": "Tissue enzyme analyses NEC",
            "hlt_code": "10043891",
            "hlgt_name": "Enzyme investigations NEC",
            "hlgt_code": "10014938",
            "soc_name": "Investigations",
            "soc_code": "10022891",
            "llt_similarity_score": 1.0,
            "pt_similarity_score": 1.0,
            "Similarity score": 1.0
        },
        {
            "llt_code": "10034926",
            "llt_name": "Phosphatase acid increased",
            "table": "llt",
            "pt_name": "Blood acid phosphatase increased",
            "pt_code": "10005282",
            "hlt_name": "Tissue enzyme analyses NEC",
            "hlt_code": "10043891",
            "hlgt_name": "Enzyme investigations NEC",
            "hlgt_code": "10014938",
            "soc_name": "Investigations",
            "soc_code": "10022891",
            "llt_similarity_score": 0.7157596253803886,
            "pt_similarity_score": 1.0,
            "Similarity score": 0.7726077003043109
        },
        {
            "llt_code": "10000471",
            "llt_name": "Acid phosphatase increased",
            "table": "llt",
            "pt_name": "Blood acid phosphatase increased",
            "pt_code": "10005282",
            "hlt_name": "Tissue enzyme analyses NEC",
            "hlt_code": "10043891",
            "hlgt_name": "Enzyme investigations NEC",
            "hlgt_code": "10014938",
            "soc_name": "Investigations",
            "soc_code": "10022891",
            "llt_similarity_score": 0.7157596253803886,
            "pt_similarity_score": 1.0,
            "Similarity score": 0.7726077003043109
        },
        {
            "llt_code": "10035164",
            "llt_name": "Plasma acid phosphatase increased",
            "table": "llt",
            "pt_name": "Blood acid phosphatase increased",
            "pt_code": "10005282",
            "hlt_name": "Tissue enzyme analyses NEC",
            "hlt_code": "10043891",
            "hlgt_name": "Enzyme investigations NEC",
            "hlgt_code": "10014938",
            "soc_name": "Investigations",
            "soc_code": "10022891",
            "llt_similarity_score": 0.642833092219603,
            "pt_similarity_score": 1.0,
            "Similarity score": 0.7142664737756824
        },
        {
            "llt_code": "10000478",
            "llt_name": "Acid phosphatase serum increased",
            "table": "llt",
            "pt_name": "Blood acid phosphatase increased",
            "pt_code": "10005282",
            "hlt_name": "Tissue enzyme analyses NEC",
            "hlt_code": "10043891",
            "hlgt_name": "Enzyme investigations NEC",
            "hlgt_code": "10014938",
            "soc_name": "Investigations",
            "soc_code": "10022891",
            "llt_similarity_score": 0.642833092219603,
            "pt_similarity_score": 1.0,
            "Similarity score": 0.7142664737756824
        },
        {
            "llt_code": "10040119",
            "llt_name": "Serum acid phosphatase increased",
            "table": "llt",
            "pt_name": "Blood acid phosphatase increased",
            "pt_code": "10005282",
            "hlt_name": "Tissue enzyme analyses NEC",
            "hlt_code": "10043891",
            "hlgt_name": "Enzyme investigations NEC",
            "hlgt_code": "10014938",
            "soc_name": "Investigations",
            "soc_code": "10022891",
            "llt_similarity_score": 0.642833092219603,
            "pt_similarity_score": 1.0,
            "Similarity score": 0.7142664737756824
        },
        {
            "llt_code": "10005278",
            "llt_name": "Blood acid phosphatase",
            "table": "llt",
            "pt_name": "Blood acid phosphatase",
            "pt_code": "10005278",
            "hlt_name": "Tissue enzyme analyses NEC",
            "hlt_code": "10043891",
            "hlgt_name": "Enzyme investigations NEC",
            "hlgt_code": "10014938",
            "soc_name": "Investigations",
            "soc_code": "10022891",
            "llt_similarity_score": 0.6871881968089602,
            "pt_similarity_score": 0.6871881968089602,
            "Similarity score": 0.6871881968089602
        },
        {
            "llt_code": "10000467",
            "llt_name": "Acid phosphatase",
            "table": "llt",
            "pt_name": "Blood acid phosphatase",
            "pt_code": "10005278",
            "hlt_name": "Tissue enzyme analyses NEC",
            "hlt_code": "10043891",
            "hlgt_name": "Enzyme investigations NEC",
            "hlgt_code": "10014938",
            "soc_name": "Investigations",
            "soc_code": "10022891",
            "llt_similarity_score": 0.6476190476190474,
            "pt_similarity_score": 0.6871881968089602,
            "Similarity score": 0.65553287745703
        },
        {
            "llt_code": "10005281",
            "llt_name": "Blood acid phosphatase decreased",
            "table": "llt",
            "pt_name": "Blood acid phosphatase decreased",
            "pt_code": "10005281",
            "hlt_name": "Tissue enzyme analyses NEC",
            "hlt_code": "10043891",
            "hlgt_name": "Enzyme investigations NEC",
            "hlgt_code": "10014938",
            "soc_name": "Investigations",
            "soc_code": "10022891",
            "llt_similarity_score": 0.6523569017434125,
            "pt_similarity_score": 0.6523569017434125,
            "Similarity score": 0.6523569017434125
        },
        {
            "llt_code": "10000475",
            "llt_name": "Acid phosphatase prostatic increased",
            "table": "llt",
            "pt_name": "Prostatic acid phosphatase increased",
            "pt_code": "10036938",
            "hlt_name": "Tissue enzyme analyses NEC",
            "hlt_code": "10043891",
            "hlgt_name": "Enzyme investigations NEC",
            "hlgt_code": "10014938",
            "soc_name": "Investigations",
            "soc_code": "10022891",
            "llt_similarity_score": 0.642833092219603,
            "pt_similarity_score": 0.642833092219603,
            "Similarity score": 0.642833092219603
        },
        {
            "llt_code": "10036938",
            "llt_name": "Prostatic acid phosphatase increased",
            "table": "llt",
            "pt_name": "Prostatic acid phosphatase increased",
            "pt_code": "10036938",
            "hlt_name": "Tissue enzyme analyses NEC",
            "hlt_code": "10043891",
            "hlgt_name": "Enzyme investigations NEC",
            "hlgt_code": "10014938",
            "soc_name": "Investigations",
            "soc_code": "10022891",
            "llt_similarity_score": 0.642833092219603,
            "pt_similarity_score": 0.642833092219603,
            "Similarity score": 0.642833092219603
        },
        {
            "llt_code": "10005283",
            "llt_name": "Blood acid phosphatase normal",
            "table": "llt",
            "pt_name": "Blood acid phosphatase normal",
            "pt_code": "10005283",
            "hlt_name": "Tissue enzyme analyses NEC",
            "hlt_code": "10043891",
            "hlgt_name": "Enzyme investigations NEC",
            "hlgt_code": "10014938",
            "soc_name": "Investigations",
            "soc_code": "10022891",
            "llt_similarity_score": 0.6142616636481745,
            "pt_similarity_score": 0.6142616636481745,
            "Similarity score": 0.6142616636481745
        },
        {
            "llt_code": "10005279",
            "llt_name": "Blood acid phosphatase abnormal",
            "table": "llt",
            "pt_name": "Blood acid phosphatase abnormal",
            "pt_code": "10005279",
            "hlt_name": "Tissue enzyme analyses NEC",
            "hlt_code": "10043891",
            "hlgt_name": "Enzyme investigations NEC",
            "hlgt_code": "10014938",
            "soc_name": "Investigations",
            "soc_code": "10022891",
            "llt_similarity_score": 0.6142616636481745,
            "pt_similarity_score": 0.6142616636481745,
            "Similarity score": 0.6142616636481745
        },
        {
            "llt_code": "10000477",
            "llt_name": "Acid phosphatase serum incr",
            "table": "llt",
            "pt_name": "Blood acid phosphatase increased",
            "pt_code": "10005282",
            "hlt_name": "Tissue enzyme analyses NEC",
            "hlt_code": "10043891",
            "hlgt_name": "Enzyme investigations NEC",
            "hlgt_code": "10014938",
            "soc_name": "Investigations",
            "soc_code": "10022891",
            "llt_similarity_score": 0.5104569499661586,
            "pt_similarity_score": 1.0,
            "Similarity score": 0.608365559972927
        },
        {
            "llt_code": "10000469",
            "llt_name": "Acid phosphatase decreased",
            "table": "llt",
            "pt_name": "Blood acid phosphatase decreased",
            "pt_code": "10005281",
            "hlt_name": "Tissue enzyme analyses NEC",
            "hlt_code": "10043891",
            "hlgt_name": "Enzyme investigations NEC",
            "hlgt_code": "10014938",
            "soc_name": "Investigations",
            "soc_code": "10022891",
            "llt_similarity_score": 0.5878457955424062,
            "pt_similarity_score": 0.6523569017434125,
            "Similarity score": 0.6007480167826076
        },
        {
            "llt_code": "10080834",
            "llt_name": "Tartrate-resistant acid phosphatase increased",
            "table": "llt",
            "pt_name": "Tartrate-resistant acid phosphatase increased",
            "pt_code": "10080834",
            "hlt_name": "Biochemical markers of bone metabolism",
            "hlt_code": "10067225",
            "hlgt_name": "Musculoskeletal and soft tissue investigations (excl enzyme tests)",
            "hlgt_code": "10028387",
            "soc_name": "Investigations",
            "soc_code": "10022891",
            "llt_similarity_score": 0.5930655927843553,
            "pt_similarity_score": 0.5930655927843553,
            "Similarity score": 0.5930655927843553
        },
        {
            "llt_code": "10005280",
            "llt_name": "Blood acid phosphatase abnormal NOS",
            "table": "llt",
            "pt_name": "Blood acid phosphatase abnormal",
            "pt_code": "10005279",
            "hlt_name": "Tissue enzyme analyses NEC",
            "hlt_code": "10043891",
            "hlgt_name": "Enzyme investigations NEC",
            "hlgt_code": "10014938",
            "soc_name": "Investigations",
            "soc_code": "10022891",
            "llt_similarity_score": 0.5644941642129268,
            "pt_similarity_score": 0.6142616636481745,
            "Similarity score": 0.5744476640999763
        },
        {
            "llt_code": "10059570",
            "llt_name": "Blood alkaline phosphatase increased",
            "table": "llt",
            "pt_name": "Blood alkaline phosphatase increased",
            "pt_code": "10059570",
            "hlt_name": "Tissue enzyme analyses NEC",
            "hlt_code": "10043891",
            "hlgt_name": "Enzyme investigations NEC",
            "hlgt_code": "10014938",
            "soc_name": "Investigations",
            "soc_code": "10022891",
            "llt_similarity_score": 0.5580759975852062,
            "pt_similarity_score": 0.5580759975852062,
            "Similarity score": 0.5580759975852062
        },
        {
            "llt_code": "10035163",
            "llt_name": "Plasma acid phosphatase decreased",
            "table": "llt",
            "pt_name": "Blood acid phosphatase decreased",
            "pt_code": "10005281",
            "hlt_name": "Tissue enzyme analyses NEC",
            "hlt_code": "10043891",
            "hlgt_name": "Enzyme investigations NEC",
            "hlgt_code": "10014938",
            "soc_name": "Investigations",
            "soc_code": "10022891",
            "llt_similarity_score": 0.5295045690137776,
            "pt_similarity_score": 0.6523569017434125,
            "Similarity score": 0.5540750355597046
        },
        {
            "llt_code": "10040118",
            "llt_name": "Serum acid phosphatase decreased",
            "table": "llt",
            "pt_name": "Blood acid phosphatase decreased",
            "pt_code": "10005281",
            "hlt_name": "Tissue enzyme analyses NEC",
            "hlt_code": "10043891",
            "hlgt_name": "Enzyme investigations NEC",
            "hlgt_code": "10014938",
            "soc_name": "Investigations",
            "soc_code": "10022891",
            "llt_similarity_score": 0.5295045690137776,
            "pt_similarity_score": 0.6523569017434125,
            "Similarity score": 0.5540750355597046
        },
        {
            "llt_code": "10005302",
            "llt_name": "Blood alkaline phosphatase bone increased",
            "table": "llt",
            "pt_name": "Blood alkaline phosphatase increased",
            "pt_code": "10059570",
            "hlt_name": "Tissue enzyme analyses NEC",
            "hlt_code": "10043891",
            "hlgt_name": "Enzyme investigations NEC",
            "hlgt_code": "10014938",
            "soc_name": "Investigations",
            "soc_code": "10022891",
            "llt_similarity_score": 0.5182619980370081,
            "pt_similarity_score": 0.5580759975852062,
            "Similarity score": 0.5262247979466477
        },
        {
            "llt_code": "10005313",
            "llt_name": "Blood alkaline phosphatase NOS increased",
            "table": "llt",
            "pt_name": "Blood alkaline phosphatase increased",
            "pt_code": "10059570",
            "hlt_name": "Tissue enzyme analyses NEC",
            "hlt_code": "10043891",
            "hlgt_name": "Enzyme investigations NEC",
            "hlgt_code": "10014938",
            "soc_name": "Investigations",
            "soc_code": "10022891",
            "llt_similarity_score": 0.5182619980370081,
            "pt_similarity_score": 0.5580759975852062,
            "Similarity score": 0.5262247979466477
        },
        {
            "llt_code": "10059584",
            "llt_name": "Blood alkaline phosphatase renal increased",
            "table": "llt",
            "pt_name": "Blood alkaline phosphatase increased",
            "pt_code": "10059570",
            "hlt_name": "Tissue enzyme analyses NEC",
            "hlt_code": "10043891",
            "hlgt_name": "Enzyme investigations NEC",
            "hlgt_code": "10014938",
            "soc_name": "Investigations",
            "soc_code": "10022891",
            "llt_similarity_score": 0.5182619980370081,
            "pt_similarity_score": 0.5580759975852062,
            "Similarity score": 0.5262247979466477
        },
        {
            "llt_code": "10005308",
            "llt_name": "Blood alkaline phosphatase liver increased",
            "table": "llt",
            "pt_name": "Blood alkaline phosphatase increased",
            "pt_code": "10059570",
            "hlt_name": "Tissue enzyme analyses NEC",
            "hlt_code": "10043891",
            "hlgt_name": "Enzyme investigations NEC",
            "hlgt_code": "10014938",
            "soc_name": "Investigations",
            "soc_code": "10022891",
            "llt_similarity_score": 0.5182619980370081,
            "pt_similarity_score": 0.5580759975852062,
            "Similarity score": 0.5262247979466477
        },
        {
            "llt_code": "10005306",
            "llt_name": "Blood alkaline phosphatase intestine increased",
            "table": "llt",
            "pt_name": "Blood alkaline phosphatase increased",
            "pt_code": "10059570",
            "hlt_name": "Tissue enzyme analyses NEC",
            "hlt_code": "10043891",
            "hlgt_name": "Enzyme investigations NEC",
            "hlgt_code": "10014938",
            "soc_name": "Investigations",
            "soc_code": "10022891",
            "llt_similarity_score": 0.5182619980370081,
            "pt_similarity_score": 0.5580759975852062,
            "Similarity score": 0.5262247979466477
        },
        {
            "llt_code": "10005316",
            "llt_name": "Blood alkaline phosphatase placental increased",
            "table": "llt",
            "pt_name": "Blood alkaline phosphatase increased",
            "pt_code": "10059570",
            "hlt_name": "Tissue enzyme analyses NEC",
            "hlt_code": "10043891",
            "hlgt_name": "Enzyme investigations NEC",
            "hlgt_code": "10014938",
            "soc_name": "Investigations",
            "soc_code": "10022891",
            "llt_similarity_score": 0.5182619980370081,
            "pt_similarity_score": 0.5580759975852062,
            "Similarity score": 0.5262247979466477
        },
        {
            "llt_code": "10005861",
            "llt_name": "Blood uric acid increased",
            "table": "llt",
            "pt_name": "Blood uric acid increased",
            "pt_code": "10005861",
            "hlt_name": "Metabolism tests NEC",
            "hlt_code": "10027434",
            "hlgt_name": "Metabolic, nutritional and blood gas investigations",
            "hlgt_code": "10027432",
            "soc_name": "Investigations",
            "soc_code": "10022891",
            "llt_similarity_score": 0.500933140442349,
            "pt_similarity_score": 0.500933140442349,
            "Similarity score": 0.500933140442349
        },
        {
            "llt_code": "10046501",
            "llt_name": "Uric acid blood increased",
            "table": "llt",
            "pt_name": "Blood uric acid increased",
            "pt_code": "10005861",
            "hlt_name": "Metabolism tests NEC",
            "hlt_code": "10027434",
            "hlgt_name": "Metabolic, nutritional and blood gas investigations",
            "hlgt_code": "10027432",
            "soc_name": "Investigations",
            "soc_code": "10022891",
            "llt_similarity_score": 0.500933140442349,
            "pt_similarity_score": 0.500933140442349,
            "Similarity score": 0.500933140442349
        },
        {
            "llt_code": "10062682",
            "llt_name": "Blood citric acid increased",
            "table": "llt",
            "pt_name": "Blood citric acid increased",
            "pt_code": "10062682",
            "hlt_name": "Metabolism tests NEC",
            "hlt_code": "10027434",
            "hlgt_name": "Metabolic, nutritional and blood gas investigations",
            "hlgt_code": "10027432",
            "soc_name": "Investigations",
            "soc_code": "10022891",
            "llt_similarity_score": 0.500933140442349,
            "pt_similarity_score": 0.500933140442349,
            "Similarity score": 0.500933140442349
        },
        {
            "llt_code": "10005635",
            "llt_name": "Blood lactic acid increased",
            "table": "llt",
            "pt_name": "Blood lactic acid increased",
            "pt_code": "10005635",
            "hlt_name": "Blood gas and acid base analyses",
            "hlt_code": "10005536",
            "hlgt_name": "Metabolic, nutritional and blood gas investigations",
            "hlgt_code": "10027432",
            "soc_name": "Investigations",
            "soc_code": "10022891",
            "llt_similarity_score": 0.500933140442349,
            "pt_similarity_score": 0.500933140442349,
            "Similarity score": 0.500933140442349
        },
        {
            "llt_code": "10023674",
            "llt_name": "Lactic acid blood increased",
            "table": "llt",
            "pt_name": "Blood lactic acid increased",
            "pt_code": "10005635",
            "hlt_name": "Blood gas and acid base analyses",
            "hlt_code": "10005536",
            "hlgt_name": "Metabolic, nutritional and blood gas investigations",
            "hlgt_code": "10027432",
            "soc_name": "Investigations",
            "soc_code": "10022891",
            "llt_similarity_score": 0.500933140442349,
            "pt_similarity_score": 0.500933140442349,
            "Similarity score": 0.500933140442349
        },
        {
            "llt_code": "10005787",
            "llt_name": "Blood pyruvic acid increased",
            "table": "llt",
            "pt_name": "Blood pyruvic acid increased",
            "pt_code": "10005787",
            "hlt_name": "Metabolism tests NEC",
            "hlt_code": "10027434",
            "hlgt_name": "Metabolic, nutritional and blood gas investigations",
            "hlgt_code": "10027432",
            "soc_name": "Investigations",
            "soc_code": "10022891",
            "llt_similarity_score": 0.500933140442349,
            "pt_similarity_score": 0.500933140442349,
            "Similarity score": 0.500933140442349
        },
        {
            "llt_code": "10034927",
            "llt_name": "Phosphatase alkaline increased",
            "table": "llt",
            "pt_name": "Blood alkaline phosphatase increased",
            "pt_code": "10059570",
            "hlt_name": "Tissue enzyme analyses NEC",
            "hlt_code": "10043891",
            "hlgt_name": "Enzyme investigations NEC",
            "hlgt_code": "10014938",
            "soc_name": "Investigations",
            "soc_code": "10022891",
            "llt_similarity_score": 0.4789795847520428,
            "pt_similarity_score": 0.5580759975852062,
            "Similarity score": 0.49479886731867545
        },
        {
            "llt_code": "10001675",
            "llt_name": "Alkaline phosphatase increased",
            "table": "llt",
            "pt_name": "Blood alkaline phosphatase increased",
            "pt_code": "10059570",
            "hlt_name": "Tissue enzyme analyses NEC",
            "hlt_code": "10043891",
            "hlgt_name": "Enzyme investigations NEC",
            "hlgt_code": "10014938",
            "soc_name": "Investigations",
            "soc_code": "10022891",
            "llt_similarity_score": 0.4789795847520428,
            "pt_similarity_score": 0.5580759975852062,
            "Similarity score": 0.49479886731867545
        },
        {
            "llt_code": "10083332",
            "llt_name": "Blood sialic acid increased",
            "table": "llt",
            "pt_name": "Sialic acid increased",
            "pt_code": "10083707",
            "hlt_name": "Metabolism tests NEC",
            "hlt_code": "10027434",
            "hlgt_name": "Metabolic, nutritional and blood gas investigations",
            "hlgt_code": "10027432",
            "soc_name": "Investigations",
            "soc_code": "10022891",
            "llt_similarity_score": 0.500933140442349,
            "pt_similarity_score": 0.4218367276091856,
            "Similarity score": 0.4851138578757164
        },
        {
            "llt_code": "10066809",
            "llt_name": "Bone alkaline phosphatase increased",
            "table": "llt",
            "pt_name": "Blood alkaline phosphatase increased",
            "pt_code": "10059570",
            "hlt_name": "Tissue enzyme analyses NEC",
            "hlt_code": "10043891",
            "hlgt_name": "Enzyme investigations NEC",
            "hlgt_code": "10014938",
            "soc_name": "Investigations",
            "soc_code": "10022891",
            "llt_similarity_score": 0.43522366485557135,
            "pt_similarity_score": 0.5580759975852062,
            "Similarity score": 0.45979413140149833
        },
        {
            "llt_code": "10001677",
            "llt_name": "Alkaline phosphatase NOS increased",
            "table": "llt",
            "pt_name": "Blood alkaline phosphatase increased",
            "pt_code": "10059570",
            "hlt_name": "Tissue enzyme analyses NEC",
            "hlt_code": "10043891",
            "hlgt_name": "Enzyme investigations NEC",
            "hlgt_code": "10014938",
            "soc_name": "Investigations",
            "soc_code": "10022891",
            "llt_similarity_score": 0.43522366485557135,
            "pt_similarity_score": 0.5580759975852062,
            "Similarity score": 0.45979413140149833
        },
        {
            "llt_code": "10059569",
            "llt_name": "Blood alkaline phosphatase decreased",
            "table": "llt",
            "pt_name": "Blood alkaline phosphatase decreased",
            "pt_code": "10059569",
            "hlt_name": "Tissue enzyme analyses NEC",
            "hlt_code": "10043891",
            "hlgt_name": "Enzyme investigations NEC",
            "hlgt_code": "10014938",
            "soc_name": "Investigations",
            "soc_code": "10022891",
            "llt_similarity_score": 0.4447474743793809,
            "pt_similarity_score": 0.4447474743793809,
            "Similarity score": 0.44474747437938084
        },
        {
            "llt_code": "10066980",
            "llt_name": "Uric acid increased",
            "table": "llt",
            "pt_name": "Blood uric acid increased",
            "pt_code": "10005861",
            "hlt_name": "Metabolism tests NEC",
            "hlt_code": "10027434",
            "hlgt_name": "Metabolic, nutritional and blood gas investigations",
            "hlgt_code": "10027432",
            "soc_name": "Investigations",
            "soc_code": "10022891",
            "llt_similarity_score": 0.4218367276091856,
            "pt_similarity_score": 0.500933140442349,
            "Similarity score": 0.4376560101758183
        },
        {
            "llt_code": "10083707",
            "llt_name": "Sialic acid increased",
            "table": "llt",
            "pt_name": "Sialic acid increased",
            "pt_code": "10083707",
            "hlt_name": "Metabolism tests NEC",
            "hlt_code": "10027434",
            "hlgt_name": "Metabolic, nutritional and blood gas investigations",
            "hlgt_code": "10027432",
            "soc_name": "Investigations",
            "soc_code": "10022891",
            "llt_similarity_score": 0.4218367276091856,
            "pt_similarity_score": 0.4218367276091856,
            "Similarity score": 0.42183672760918556
        },
        {
            "llt_code": "10083758",
            "llt_name": "Glycolic acid increased",
            "table": "llt",
            "pt_name": "Glycolic acid increased",
            "pt_code": "10083758",
            "hlt_name": "Metabolism tests NEC",
            "hlt_code": "10027434",
            "hlgt_name": "Metabolic, nutritional and blood gas investigations",
            "hlgt_code": "10027432",
            "soc_name": "Investigations",
            "soc_code": "10022891",
            "llt_similarity_score": 0.4218367276091856,
            "pt_similarity_score": 0.4218367276091856,
            "Similarity score": 0.42183672760918556
        },
        {
            "llt_code": "10064796",
            "llt_name": "Phytanic acid increased",
            "table": "llt",
            "pt_name": "Phytanic acid increased",
            "pt_code": "10064796",
            "hlt_name": "Lipoprotein and lipid tests NEC",
            "hlt_code": "10024624",
            "hlgt_name": "Lipid analyses",
            "hlgt_code": "10024580",
            "soc_name": "Investigations",
            "soc_code": "10022891",
            "llt_similarity_score": 0.4218367276091856,
            "pt_similarity_score": 0.4218367276091856,
            "Similarity score": 0.42183672760918556
        },
        {
            "llt_code": "10080824",
            "llt_name": "Glycocholic acid increased",
            "table": "llt",
            "pt_name": "Glycocholic acid increased",
            "pt_code": "10080824",
            "hlt_name": "Liver function analyses",
            "hlt_code": "10024689",
            "hlgt_name": "Hepatobiliary investigations",
            "hlgt_code": "10019809",
            "soc_name": "Investigations",
            "soc_code": "10022891",
            "llt_similarity_score": 0.4218367276091856,
            "pt_similarity_score": 0.4218367276091856,
            "Similarity score": 0.42183672760918556
        },
        {
            "llt_code": "10058420",
            "llt_name": "Hyaluronic acid increased",
            "table": "llt",
            "pt_name": "Hyaluronic acid increased",
            "pt_code": "10058420",
            "hlt_name": "Metabolism tests NEC",
            "hlt_code": "10027434",
            "hlgt_name": "Metabolic, nutritional and blood gas investigations",
            "hlgt_code": "10027432",
            "soc_name": "Investigations",
            "soc_code": "10022891",
            "llt_similarity_score": 0.4218367276091856,
            "pt_similarity_score": 0.4218367276091856,
            "Similarity score": 0.42183672760918556
        },
        {
            "llt_code": "10005305",
            "llt_name": "Blood alkaline phosphatase intestine decreased",
            "table": "llt",
            "pt_name": "Blood alkaline phosphatase decreased",
            "pt_code": "10059569",
            "hlt_name": "Tissue enzyme analyses NEC",
            "hlt_code": "10043891",
            "hlgt_name": "Enzyme investigations NEC",
            "hlgt_code": "10014938",
            "soc_name": "Investigations",
            "soc_code": "10022891",
            "llt_similarity_score": 0.41488697471823227,
            "pt_similarity_score": 0.4447474743793809,
            "Similarity score": 0.42085907465046196
        },
        {
            "llt_code": "10005301",
            "llt_name": "Blood alkaline phosphatase bone decreased",
            "table": "llt",
            "pt_name": "Blood alkaline phosphatase decreased",
            "pt_code": "10059569",
            "hlt_name": "Tissue enzyme analyses NEC",
            "hlt_code": "10043891",
            "hlgt_name": "Enzyme investigations NEC",
            "hlgt_code": "10014938",
            "soc_name": "Investigations",
            "soc_code": "10022891",
            "llt_similarity_score": 0.41488697471823227,
            "pt_similarity_score": 0.4447474743793809,
            "Similarity score": 0.42085907465046196
        },
        {
            "llt_code": "10005312",
            "llt_name": "Blood alkaline phosphatase NOS decreased",
            "table": "llt",
            "pt_name": "Blood alkaline phosphatase decreased",
            "pt_code": "10059569",
            "hlt_name": "Tissue enzyme analyses NEC",
            "hlt_code": "10043891",
            "hlgt_name": "Enzyme investigations NEC",
            "hlgt_code": "10014938",
            "soc_name": "Investigations",
            "soc_code": "10022891",
            "llt_similarity_score": 0.41488697471823227,
            "pt_similarity_score": 0.4447474743793809,
            "Similarity score": 0.42085907465046196
        },
        {
            "llt_code": "10005307",
            "llt_name": "Blood alkaline phosphatase liver decreased",
            "table": "llt",
            "pt_name": "Blood alkaline phosphatase decreased",
            "pt_code": "10059569",
            "hlt_name": "Tissue enzyme analyses NEC",
            "hlt_code": "10043891",
            "hlgt_name": "Enzyme investigations NEC",
            "hlgt_code": "10014938",
            "soc_name": "Investigations",
            "soc_code": "10022891",
            "llt_similarity_score": 0.41488697471823227,
            "pt_similarity_score": 0.4447474743793809,
            "Similarity score": 0.42085907465046196
        },
        {
            "llt_code": "10059582",
            "llt_name": "Blood alkaline phosphatase renal decreased",
            "table": "llt",
            "pt_name": "Blood alkaline phosphatase decreased",
            "pt_code": "10059569",
            "hlt_name": "Tissue enzyme analyses NEC",
            "hlt_code": "10043891",
            "hlgt_name": "Enzyme investigations NEC",
            "hlgt_code": "10014938",
            "soc_name": "Investigations",
            "soc_code": "10022891",
            "llt_similarity_score": 0.41488697471823227,
            "pt_similarity_score": 0.4447474743793809,
            "Similarity score": 0.42085907465046196
        },
        {
            "llt_code": "10040318",
            "llt_name": "Serum lactic acid increased",
            "table": "llt",
            "pt_name": "Blood lactic acid increased",
            "pt_code": "10005635",
            "hlt_name": "Blood gas and acid base analyses",
            "hlt_code": "10005536",
            "hlgt_name": "Metabolic, nutritional and blood gas investigations",
            "hlgt_code": "10027432",
            "soc_name": "Investigations",
            "soc_code": "10022891",
            "llt_similarity_score": 0.3780808077127142,
            "pt_similarity_score": 0.500933140442349,
            "Similarity score": 0.40265127425864117
        },
        {
            "llt_code": "10046502",
            "llt_name": "Uric acid level increased",
            "table": "llt",
            "pt_name": "Blood uric acid increased",
            "pt_code": "10005861",
            "hlt_name": "Metabolism tests NEC",
            "hlt_code": "10027434",
            "hlgt_name": "Metabolic, nutritional and blood gas investigations",
            "hlgt_code": "10027432",
            "soc_name": "Investigations",
            "soc_code": "10022891",
            "llt_similarity_score": 0.3780808077127142,
            "pt_similarity_score": 0.500933140442349,
            "Similarity score": 0.40265127425864117
        },
        {
            "llt_code": "10040392",
            "llt_name": "Serum pyruvic acid increased",
            "table": "llt",
            "pt_name": "Blood pyruvic acid increased",
            "pt_code": "10005787",
            "hlt_name": "Metabolism tests NEC",
            "hlt_code": "10027434",
            "hlgt_name": "Metabolic, nutritional and blood gas investigations",
            "hlgt_code": "10027432",
            "soc_name": "Investigations",
            "soc_code": "10022891",
            "llt_similarity_score": 0.3780808077127142,
            "pt_similarity_score": 0.500933140442349,
            "Similarity score": 0.40265127425864117
        },
        {
            "llt_code": "10035422",
            "llt_name": "Plasma pyruvic acid increased",
            "table": "llt",
            "pt_name": "Blood pyruvic acid increased",
            "pt_code": "10005787",
            "hlt_name": "Metabolism tests NEC",
            "hlt_code": "10027434",
            "hlgt_name": "Metabolic, nutritional and blood gas investigations",
            "hlgt_code": "10027432",
            "soc_name": "Investigations",
            "soc_code": "10022891",
            "llt_similarity_score": 0.3780808077127142,
            "pt_similarity_score": 0.500933140442349,
            "Similarity score": 0.40265127425864117
        },
        {
            "llt_code": "10035347",
            "llt_name": "Plasma lactic acid increased",
            "table": "llt",
            "pt_name": "Blood lactic acid increased",
            "pt_code": "10005635",
            "hlt_name": "Blood gas and acid base analyses",
            "hlt_code": "10005536",
            "hlgt_name": "Metabolic, nutritional and blood gas investigations",
            "hlgt_code": "10027432",
            "soc_name": "Investigations",
            "soc_code": "10022891",
            "llt_similarity_score": 0.3780808077127142,
            "pt_similarity_score": 0.500933140442349,
            "Similarity score": 0.40265127425864117
        },
        {
            "llt_code": "10050788",
            "llt_name": "Folic acid increased",
            "table": "llt",
            "pt_name": "Blood folate increased",
            "pt_code": "10005528",
            "hlt_name": "Vitamin analyses",
            "hlt_code": "10047598",
            "hlgt_name": "Metabolic, nutritional and blood gas investigations",
            "hlgt_code": "10027432",
            "soc_name": "Investigations",
            "soc_code": "10022891",
            "llt_similarity_score": 0.4218367276091856,
            "pt_similarity_score": 0.32249432634263164,
            "Similarity score": 0.4019682473558748
        },
        {
            "llt_code": "10064417",
            "llt_name": "Urine glycolic acid increased",
            "table": "llt",
            "pt_name": "Glycolic acid increased",
            "pt_code": "10083758",
            "hlt_name": "Metabolism tests NEC",
            "hlt_code": "10027434",
            "hlgt_name": "Metabolic, nutritional and blood gas investigations",
            "hlgt_code": "10027432",
            "soc_name": "Investigations",
            "soc_code": "10022891",
            "llt_similarity_score": 0.3780808077127142,
            "pt_similarity_score": 0.4218367276091856,
            "Similarity score": 0.3868319916920085
        },
        {
            "llt_code": "10057120",
            "llt_name": "Urine uric acid increased",
            "table": "llt",
            "pt_name": "Urine uric acid increased",
            "pt_code": "10057120",
            "hlt_name": "Urinalysis NEC",
            "hlt_code": "10046512",
            "hlgt_name": "Renal and urinary tract investigations and urinalyses",
            "hlgt_code": "10038362",
            "soc_name": "Investigations",
            "soc_code": "10022891",
            "llt_similarity_score": 0.3780808077127142,
            "pt_similarity_score": 0.3780808077127142,
            "Similarity score": 0.3780808077127142
        },
        {
            "llt_code": "10064800",
            "llt_name": "Serum pristanic acid increased",
            "table": "llt",
            "pt_name": "Serum pristanic acid increased",
            "pt_code": "10064800",
            "hlt_name": "Lipoprotein and lipid tests NEC",
            "hlt_code": "10024624",
            "hlgt_name": "Lipid analyses",
            "hlgt_code": "10024580",
            "soc_name": "Investigations",
            "soc_code": "10022891",
            "llt_similarity_score": 0.3780808077127142,
            "pt_similarity_score": 0.3780808077127142,
            "Similarity score": 0.3780808077127142
        },
        {
            "llt_code": "10060086",
            "llt_name": "Urine lactic acid increased",
            "table": "llt",
            "pt_name": "Urine lactic acid increased",
            "pt_code": "10060086",
            "hlt_name": "Blood gas and acid base analyses",
            "hlt_code": "10005536",
            "hlgt_name": "Metabolic, nutritional and blood gas investigations",
            "hlgt_code": "10027432",
            "soc_name": "Investigations",
            "soc_code": "10022891",
            "llt_similarity_score": 0.3780808077127142,
            "pt_similarity_score": 0.3780808077127142,
            "Similarity score": 0.3780808077127142
        },
        {
            "llt_code": "10059742",
            "llt_name": "Citric acid urine increased",
            "table": "llt",
            "pt_name": "Citric acid urine increased",
            "pt_code": "10059742",
            "hlt_name": "Renal function analyses",
            "hlt_code": "10038454",
            "hlgt_name": "Renal and urinary tract investigations and urinalyses",
            "hlgt_code": "10038362",
            "soc_name": "Investigations",
            "soc_code": "10022891",
            "llt_similarity_score": 0.3780808077127142,
            "pt_similarity_score": 0.3780808077127142,
            "Similarity score": 0.3780808077127142
        },
        {
            "llt_code": "10059304",
            "llt_name": "Urine aspartic acid increased",
            "table": "llt",
            "pt_name": "Amino acid level increased",
            "pt_code": "10063259",
            "hlt_name": "Protein analyses NEC",
            "hlt_code": "10036998",
            "hlgt_name": "Protein and chemistry analyses NEC",
            "hlgt_code": "10037000",
            "soc_name": "Investigations",
            "soc_code": "10022891",
            "llt_similarity_score": 0.3780808077127142,
            "pt_similarity_score": 0.3780808077127142,
            "Similarity score": 0.3780808077127142
        },
        {
            "llt_code": "10063259",
            "llt_name": "Amino acid level increased",
            "table": "llt",
            "pt_name": "Amino acid level increased",
            "pt_code": "10063259",
            "hlt_name": "Protein analyses NEC",
            "hlt_code": "10036998",
            "hlgt_name": "Protein and chemistry analyses NEC",
            "hlgt_code": "10037000",
            "soc_name": "Investigations",
            "soc_code": "10022891",
            "llt_similarity_score": 0.3780808077127142,
            "pt_similarity_score": 0.3780808077127142,
            "Similarity score": 0.3780808077127142
        },
        {
            "llt_code": "10060033",
            "llt_name": "Glyceric acid urine increased",
            "table": "llt",
            "pt_name": "Glyceric acid urine increased",
            "pt_code": "10060033",
            "hlt_name": "Metabolism tests NEC",
            "hlt_code": "10027434",
            "hlgt_name": "Metabolic, nutritional and blood gas investigations",
            "hlgt_code": "10027432",
            "soc_name": "Investigations",
            "soc_code": "10022891",
            "llt_similarity_score": 0.3780808077127142,
            "pt_similarity_score": 0.3780808077127142,
            "Similarity score": 0.3780808077127142
        },
        {
            "llt_code": "10005715",
            "llt_name": "Blood phosphate increased",
            "table": "llt",
            "pt_name": "Blood phosphorus increased",
            "pt_code": "10050196",
            "hlt_name": "Mineral and electrolyte analyses",
            "hlt_code": "10027637",
            "hlgt_name": "Water, electrolyte and mineral investigations",
            "hlgt_code": "10047843",
            "soc_name": "Investigations",
            "soc_code": "10022891",
            "llt_similarity_score": 0.3796371834854888,
            "pt_similarity_score": 0.36058956443786977,
            "Similarity score": 0.375827659675965
        },
        {
            "llt_code": "10003455",
            "llt_name": "Ascorbic acid increased",
            "table": "llt",
            "pt_name": "Vitamin C increased",
            "pt_code": "10047624",
            "hlt_name": "Vitamin analyses",
            "hlt_code": "10047598",
            "hlgt_name": "Metabolic, nutritional and blood gas investigations",
            "hlgt_code": "10027432",
            "soc_name": "Investigations",
            "soc_code": "10022891",
            "llt_similarity_score": 0.4218367276091856,
            "pt_similarity_score": 0.18505668698083966,
            "Similarity score": 0.3744807194835164
        },
        {
            "llt_code": "10050196",
            "llt_name": "Blood phosphorus increased",
            "table": "llt",
            "pt_name": "Blood phosphorus increased",
            "pt_code": "10050196",
            "hlt_name": "Mineral and electrolyte analyses",
            "hlt_code": "10027637",
            "hlgt_name": "Water, electrolyte and mineral investigations",
            "hlgt_code": "10047843",
            "soc_name": "Investigations",
            "soc_code": "10022891",
            "llt_similarity_score": 0.36058956443786977,
            "pt_similarity_score": 0.36058956443786977,
            "Similarity score": 0.36058956443786977
        },
        {
            "llt_code": "10040258",
            "llt_name": "Serum free fatty acid increased",
            "table": "llt",
            "pt_name": "Free fatty acids increased",
            "pt_code": "10017349",
            "hlt_name": "Lipoprotein and lipid tests NEC",
            "hlt_code": "10024624",
            "hlgt_name": "Lipid analyses",
            "hlgt_code": "10024580",
            "soc_name": "Investigations",
            "soc_code": "10022891",
            "llt_similarity_score": 0.34822030805156556,
            "pt_similarity_score": 0.3780808077127142,
            "Similarity score": 0.35419240798379525
        },
        {
            "llt_code": "10063465",
            "llt_name": "Gastric acid increased",
            "table": "llt",
            "pt_name": "Gastric pH decreased",
            "pt_code": "10060041",
            "hlt_name": "Gastrointestinal function diagnostic procedures",
            "hlt_code": "10053099",
            "hlgt_name": "Gastrointestinal investigations",
            "hlgt_code": "10017971",
            "soc_name": "Investigations",
            "soc_code": "10022891",
            "llt_similarity_score": 0.4218367276091856,
            "pt_similarity_score": 0.057142857142857134,
            "Similarity score": 0.3488979535159199
        },
        {
            "llt_code": "10005470",
            "llt_name": "Blood creatine phosphokinase increased",
            "table": "llt",
            "pt_name": "Blood creatine phosphokinase increased",
            "pt_code": "10005470",
            "hlt_name": "Skeletal and cardiac muscle analyses",
            "hlt_code": "10040768",
            "hlgt_name": "Enzyme investigations NEC",
            "hlgt_code": "10014938",
            "soc_name": "Investigations",
            "soc_code": "10022891",
            "llt_similarity_score": 0.3314189511735555,
            "pt_similarity_score": 0.3314189511735555,
            "Similarity score": 0.3314189511735555
        },
        {
            "llt_code": "10005708",
            "llt_name": "Blood pH increased",
            "table": "llt",
            "pt_name": "Blood pH increased",
            "pt_code": "10005708",
            "hlt_name": "Blood gas and acid base analyses",
            "hlt_code": "10005536",
            "hlgt_name": "Metabolic, nutritional and blood gas investigations",
            "hlgt_code": "10027432",
            "soc_name": "Investigations",
            "soc_code": "10022891",
            "llt_similarity_score": 0.32249432634263164,
            "pt_similarity_score": 0.32249432634263164,
            "Similarity score": 0.32249432634263164
        },
        {
            "llt_code": "10050999",
            "llt_name": "Blood creatine phosphokinase BB increased",
            "table": "llt",
            "pt_name": "Blood creatine phosphokinase BB increased",
            "pt_code": "10050999",
            "hlt_name": "Skeletal and cardiac muscle analyses",
            "hlt_code": "10040768",
            "hlgt_name": "Enzyme investigations NEC",
            "hlgt_code": "10014938",
            "soc_name": "Investigations",
            "soc_code": "10022891",
            "llt_similarity_score": 0.3115119513994564,
            "pt_similarity_score": 0.3115119513994564,
            "Similarity score": 0.3115119513994564
        },
        {
            "llt_code": "10005477",
            "llt_name": "Blood creatine phosphokinase MM increased",
            "table": "llt",
            "pt_name": "Blood creatine phosphokinase MM increased",
            "pt_code": "10005477",
            "hlt_name": "Skeletal and cardiac muscle analyses",
            "hlt_code": "10040768",
            "hlgt_name": "Enzyme investigations NEC",
            "hlgt_code": "10014938",
            "soc_name": "Investigations",
            "soc_code": "10022891",
            "llt_similarity_score": 0.3115119513994564,
            "pt_similarity_score": 0.3115119513994564,
            "Similarity score": 0.3115119513994564
        },
        {
            "llt_code": "10005474",
            "llt_name": "Blood creatine phosphokinase MB increased",
            "table": "llt",
            "pt_name": "Blood creatine phosphokinase MB increased",
            "pt_code": "10005474",
            "hlt_name": "Skeletal and cardiac muscle analyses",
            "hlt_code": "10040768",
            "hlgt_name": "Enzyme investigations NEC",
            "hlgt_code": "10014938",
            "soc_name": "Investigations",
            "soc_code": "10022891",
            "llt_similarity_score": 0.3115119513994564,
            "pt_similarity_score": 0.3115119513994564,
            "Similarity score": 0.3115119513994564
        },
        {
            "llt_code": "10034932",
            "llt_name": "Phosphate increased",
            "table": "llt",
            "pt_name": "Blood phosphorus increased",
            "pt_code": "10050196",
            "hlt_name": "Mineral and electrolyte analyses",
            "hlt_code": "10027637",
            "hlgt_name": "Water, electrolyte and mineral investigations",
            "hlgt_code": "10047843",
            "soc_name": "Investigations",
            "soc_code": "10022891",
            "llt_similarity_score": 0.26666666666666666,
            "pt_similarity_score": 0.36058956443786977,
            "Similarity score": 0.2854512462209073
        },
        {
            "llt_code": "10001771",
            "llt_name": "ALP increased",
            "table": "llt",
            "pt_name": "Blood alkaline phosphatase increased",
            "pt_code": "10059570",
            "hlt_name": "Tissue enzyme analyses NEC",
            "hlt_code": "10043891",
            "hlgt_name": "Enzyme investigations NEC",
            "hlgt_code": "10014938",
            "soc_name": "Investigations",
            "soc_code": "10022891",
            "llt_similarity_score": 0.2095238095238095,
            "pt_similarity_score": 0.5580759975852062,
            "Similarity score": 0.2792342471360888
        },
        {
            "llt_code": "10050787",
            "llt_name": "Folic acid decreased",
            "table": "llt",
            "pt_name": "Blood folate decreased",
            "pt_code": "10005527",
            "hlt_name": "Vitamin analyses",
            "hlt_code": "10047598",
            "hlgt_name": "Metabolic, nutritional and blood gas investigations",
            "hlgt_code": "10027432",
            "soc_name": "Investigations",
            "soc_code": "10022891",
            "llt_similarity_score": 0.2939228977712031,
            "pt_similarity_score": 0.19458049650464915,
            "Similarity score": 0.27405441751789233
        },
        {
            "llt_code": "10001544",
            "llt_name": "Al-P increased",
            "table": "llt",
            "pt_name": "Blood alkaline phosphatase increased",
            "pt_code": "10059570",
            "hlt_name": "Tissue enzyme analyses NEC",
            "hlt_code": "10043891",
            "hlgt_name": "Enzyme investigations NEC",
            "hlgt_code": "10014938",
            "soc_name": "Investigations",
            "soc_code": "10022891",
            "llt_similarity_score": 0.18505668698083966,
            "pt_similarity_score": 0.5580759975852062,
            "Similarity score": 0.25966054910171293
        },
        {
            "llt_code": "10005714",
            "llt_name": "Blood phosphate decreased",
            "table": "llt",
            "pt_name": "Blood phosphorus decreased",
            "pt_code": "10049471",
            "hlt_name": "Mineral and electrolyte analyses",
            "hlt_code": "10027637",
            "hlgt_name": "Water, electrolyte and mineral investigations",
            "hlgt_code": "10047843",
            "soc_name": "Investigations",
            "soc_code": "10022891",
            "llt_similarity_score": 0.2517233536475063,
            "pt_similarity_score": 0.23267573459988725,
            "Similarity score": 0.2479138298379825
        },
        {
            "llt_code": "10005842",
            "llt_name": "Blood urate decreased",
            "table": "llt",
            "pt_name": "Blood uric acid decreased",
            "pt_code": "10005860",
            "hlt_name": "Metabolism tests NEC",
            "hlt_code": "10027434",
            "hlgt_name": "Metabolic, nutritional and blood gas investigations",
            "hlgt_code": "10027432",
            "soc_name": "Investigations",
            "soc_code": "10022891",
            "llt_similarity_score": 0.19458049650464915,
            "pt_similarity_score": 0.3876046172365238,
            "Similarity score": 0.23318532065102407
        },
        {
            "llt_code": "10049471",
            "llt_name": "Blood phosphorus decreased",
            "table": "llt",
            "pt_name": "Blood phosphorus decreased",
            "pt_code": "10049471",
            "hlt_name": "Mineral and electrolyte analyses",
            "hlt_code": "10027637",
            "hlgt_name": "Water, electrolyte and mineral investigations",
            "hlgt_code": "10047843",
            "soc_name": "Investigations",
            "soc_code": "10022891",
            "llt_similarity_score": 0.23267573459988725,
            "pt_similarity_score": 0.23267573459988725,
            "Similarity score": 0.23267573459988725
        },
        {
            "llt_code": "10000611",
            "llt_name": "ACTH increased",
            "table": "llt",
            "pt_name": "Blood corticotrophin increased",
            "pt_code": "10005453",
            "hlt_name": "Pituitary analyses anterior",
            "hlt_code": "10035089",
            "hlgt_name": "Endocrine investigations (incl sex hormones)",
            "hlgt_code": "10014706",
            "soc_name": "Investigations",
            "soc_code": "10022891",
            "llt_similarity_score": 0.2095238095238095,
            "pt_similarity_score": 0.32249432634263164,
            "Similarity score": 0.23211791288757394
        },
        {
            "llt_code": "10003136",
            "llt_name": "Arsenic increased",
            "table": "llt",
            "pt_name": "Blood arsenic increased",
            "pt_code": "10005342",
            "hlt_name": "Toxicology laboratory analyses",
            "hlt_code": "10044261",
            "hlgt_name": "Toxicology and therapeutic drug monitoring",
            "hlgt_code": "10044260",
            "soc_name": "Investigations",
            "soc_code": "10022891",
            "llt_similarity_score": 0.2095238095238095,
            "pt_similarity_score": 0.32249432634263164,
            "Similarity score": 0.23211791288757394
        },
        {
            "llt_code": "10001273",
            "llt_name": "ADH increased",
            "table": "llt",
            "pt_name": "Blood antidiuretic hormone increased",
            "pt_code": "10005335",
            "hlt_name": "Pituitary analyses posterior",
            "hlt_code": "10035090",
            "hlgt_name": "Endocrine investigations (incl sex hormones)",
            "hlgt_code": "10014706",
            "soc_name": "Investigations",
            "soc_code": "10022891",
            "llt_similarity_score": 0.2095238095238095,
            "pt_similarity_score": 0.29332371307831745,
            "Similarity score": 0.2262837902347111
        },
        {
            "llt_code": "10039508",
            "llt_name": "SBP increased",
            "table": "llt",
            "pt_name": "Blood pressure systolic increased",
            "pt_code": "10005760",
            "hlt_name": "Vascular tests NEC (incl blood pressure)",
            "hlt_code": "10047110",
            "hlgt_name": "Cardiac and vascular investigations (excl enzyme tests)",
            "hlgt_code": "10007512",
            "soc_name": "Investigations",
            "soc_code": "10022891",
            "llt_similarity_score": 0.2095238095238095,
            "pt_similarity_score": 0.29332371307831745,
            "Similarity score": 0.2262837902347111
        },
        {
            "llt_code": "10000416",
            "llt_name": "Acetone increased",
            "table": "llt",
            "pt_name": "Blood ketone body increased",
            "pt_code": "10057594",
            "hlt_name": "Metabolism tests NEC",
            "hlt_code": "10027434",
            "hlgt_name": "Metabolic, nutritional and blood gas investigations",
            "hlgt_code": "10027432",
            "soc_name": "Investigations",
            "soc_code": "10022891",
            "llt_similarity_score": 0.2095238095238095,
            "pt_similarity_score": 0.29332371307831745,
            "Similarity score": 0.2262837902347111
        },
        {
            "llt_code": "10067760",
            "llt_name": "Blood creatine phosphokinase decreased",
            "table": "llt",
            "pt_name": "Blood creatine phosphokinase decreased",
            "pt_code": "10067760",
            "hlt_name": "Skeletal and cardiac muscle analyses",
            "hlt_code": "10040768",
            "hlgt_name": "Enzyme investigations NEC",
            "hlgt_code": "10014938",
            "soc_name": "Investigations",
            "soc_code": "10022891",
            "llt_similarity_score": 0.21809042796773015,
            "pt_similarity_score": 0.21809042796773015,
            "Similarity score": 0.21809042796773018
        },
        {
            "llt_code": "10064814",
            "llt_name": "Blood proline decreased",
            "table": "llt",
            "pt_name": "Amino acid level decreased",
            "pt_code": "10063260",
            "hlt_name": "Protein analyses NEC",
            "hlt_code": "10036998",
            "hlgt_name": "Protein and chemistry analyses NEC",
            "hlgt_code": "10037000",
            "soc_name": "Investigations",
            "soc_code": "10022891",
            "llt_similarity_score": 0.19458049650464915,
            "pt_similarity_score": 0.2647522845068888,
            "Similarity score": 0.2086148541050971
        },
        {
            "llt_code": "10067537",
            "llt_name": "Blood creatine phosphokinase MB decreased",
            "table": "llt",
            "pt_name": "Blood creatine phosphokinase MB decreased",
            "pt_code": "10067537",
            "hlt_name": "Skeletal and cardiac muscle analyses",
            "hlt_code": "10040768",
            "hlgt_name": "Enzyme investigations NEC",
            "hlgt_code": "10014938",
            "soc_name": "Investigations",
            "soc_code": "10022891",
            "llt_similarity_score": 0.20813692808068063,
            "pt_similarity_score": 0.20813692808068063,
            "Similarity score": 0.20813692808068063
        },
        {
            "llt_code": "10075326",
            "llt_name": "Blood creatine phosphokinase MM decreased",
            "table": "llt",
            "pt_name": "Blood creatine phosphokinase MM decreased",
            "pt_code": "10075326",
            "hlt_name": "Skeletal and cardiac muscle analyses",
            "hlt_code": "10040768",
            "hlgt_name": "Enzyme investigations NEC",
            "hlgt_code": "10014938",
            "soc_name": "Investigations",
            "soc_code": "10022891",
            "llt_similarity_score": 0.20813692808068063,
            "pt_similarity_score": 0.20813692808068063,
            "Similarity score": 0.20813692808068063
        },
        {
            "llt_code": "10001845",
            "llt_name": "ALT increased",
            "table": "llt",
            "pt_name": "Alanine aminotransferase increased",
            "pt_code": "10001551",
            "hlt_name": "Liver function analyses",
            "hlt_code": "10024689",
            "hlgt_name": "Hepatobiliary investigations",
            "hlgt_code": "10019809",
            "soc_name": "Investigations",
            "soc_code": "10022891",
            "llt_similarity_score": 0.2095238095238095,
            "pt_similarity_score": 0.18505668698083966,
            "Similarity score": 0.20463038501521552
        },
        {
            "llt_code": "10003544",
            "llt_name": "AST increased",
            "table": "llt",
            "pt_name": "Aspartate aminotransferase increased",
            "pt_code": "10003481",
            "hlt_name": "Liver function analyses",
            "hlt_code": "10024689",
            "hlgt_name": "Hepatobiliary investigations",
            "hlgt_code": "10019809",
            "soc_name": "Investigations",
            "soc_code": "10022891",
            "llt_similarity_score": 0.2095238095238095,
            "pt_similarity_score": 0.18505668698083966,
            "Similarity score": 0.20463038501521552
        },
        {
            "llt_code": "10064735",
            "llt_name": "ANA increased",
            "table": "llt",
            "pt_name": "Antinuclear antibody increased",
            "pt_code": "10064726",
            "hlt_name": "Autoimmunity analyses",
            "hlt_code": "10003828",
            "hlgt_name": "Immunology and allergy investigations",
            "hlgt_code": "10021505",
            "soc_name": "Investigations",
            "soc_code": "10022891",
            "llt_similarity_score": 0.2095238095238095,
            "pt_similarity_score": 0.18505668698083966,
            "Similarity score": 0.20463038501521552
        },
        {
            "llt_code": "10005867",
            "llt_name": "Blood zinc decreased",
            "table": "llt",
            "pt_name": "Blood zinc decreased",
            "pt_code": "10005867",
            "hlt_name": "Mineral and electrolyte analyses",
            "hlt_code": "10027637",
            "hlgt_name": "Water, electrolyte and mineral investigations",
            "hlgt_code": "10047843",
            "soc_name": "Investigations",
            "soc_code": "10022891",
            "llt_similarity_score": 0.20410430602845872,
            "pt_similarity_score": 0.20410430602845872,
            "Similarity score": 0.20410430602845872
        },
        {
            "llt_code": "10005724",
            "llt_name": "Blood potassium decreased",
            "table": "llt",
            "pt_name": "Blood potassium decreased",
            "pt_code": "10005724",
            "hlt_name": "Mineral and electrolyte analyses",
            "hlt_code": "10027637",
            "hlgt_name": "Water, electrolyte and mineral investigations",
            "hlgt_code": "10047843",
            "soc_name": "Investigations",
            "soc_code": "10022891",
            "llt_similarity_score": 0.20410430602845872,
            "pt_similarity_score": 0.20410430602845872,
            "Similarity score": 0.20410430602845872
        },
        {
            "llt_code": "10036442",
            "llt_name": "Potassium blood decreased",
            "table": "llt",
            "pt_name": "Blood potassium decreased",
            "pt_code": "10005724",
            "hlt_name": "Mineral and electrolyte analyses",
            "hlt_code": "10027637",
            "hlgt_name": "Water, electrolyte and mineral investigations",
            "hlgt_code": "10047843",
            "soc_name": "Investigations",
            "soc_code": "10022891",
            "llt_similarity_score": 0.20410430602845872,
            "pt_similarity_score": 0.20410430602845872,
            "Similarity score": 0.20410430602845872
        },
        {
            "llt_code": "10050673",
            "llt_name": "Blood elastase decreased",
            "table": "llt",
            "pt_name": "Blood elastase decreased",
            "pt_code": "10050673",
            "hlt_name": "Digestive enzymes",
            "hlt_code": "10012981",
            "hlgt_name": "Gastrointestinal investigations",
            "hlgt_code": "10017971",
            "soc_name": "Investigations",
            "soc_code": "10022891",
            "llt_similarity_score": 0.20410430602845872,
            "pt_similarity_score": 0.20410430602845872,
            "Similarity score": 0.20410430602845872
        },
        {
            "llt_code": "10001457",
            "llt_name": "AFP increased",
            "table": "llt",
            "pt_name": "Alpha 1 foetoprotein increased",
            "pt_code": "10001781",
            "hlt_name": "Protein analyses NEC",
            "hlt_code": "10036998",
            "hlgt_name": "Protein and chemistry analyses NEC",
            "hlgt_code": "10037000",
            "soc_name": "Investigations",
            "soc_code": "10022891",
            "llt_similarity_score": 0.2095238095238095,
            "pt_similarity_score": 0.17999518987249202,
            "Similarity score": 0.203618085593546
        },
        {
            "llt_code": "10039375",
            "llt_name": "Salicylate increased",
            "table": "llt",
            "pt_name": "Analgesic drug level increased",
            "pt_code": "10060942",
            "hlt_name": "Therapeutic drug monitoring analyses",
            "hlt_code": "10043411",
            "hlgt_name": "Toxicology and therapeutic drug monitoring",
            "hlgt_code": "10044260",
            "soc_name": "Investigations",
            "soc_code": "10022891",
            "llt_similarity_score": 0.2095238095238095,
            "pt_similarity_score": 0.1704713803486825,
            "Similarity score": 0.2017133236887841
        },
        {
            "llt_code": "10060154",
            "llt_name": "ANCA increased",
            "table": "llt",
            "pt_name": "Antineutrophil cytoplasmic antibody increased",
            "pt_code": "10060138",
            "hlt_name": "Autoimmunity analyses",
            "hlt_code": "10003828",
            "hlgt_name": "Immunology and allergy investigations",
            "hlgt_code": "10021505",
            "soc_name": "Investigations",
            "soc_code": "10022891",
            "llt_similarity_score": 0.2095238095238095,
            "pt_similarity_score": 0.1704713803486825,
            "Similarity score": 0.2017133236887841
        },
        {
            "llt_code": "10005717",
            "llt_name": "Blood phosphorus",
            "table": "llt",
            "pt_name": "Blood phosphorus",
            "pt_code": "10005717",
            "hlt_name": "Mineral and electrolyte analyses",
            "hlt_code": "10027637",
            "hlgt_name": "Water, electrolyte and mineral investigations",
            "hlgt_code": "10047843",
            "soc_name": "Investigations",
            "soc_code": "10022891",
            "llt_similarity_score": 0.19999999999999996,
            "pt_similarity_score": 0.19999999999999996,
            "Similarity score": 0.19999999999999996
        },
        {
            "llt_code": "10005706",
            "llt_name": "Blood pH decreased",
            "table": "llt",
            "pt_name": "Blood pH decreased",
            "pt_code": "10005706",
            "hlt_name": "Blood gas and acid base analyses",
            "hlt_code": "10005536",
            "hlgt_name": "Metabolic, nutritional and blood gas investigations",
            "hlgt_code": "10027432",
            "soc_name": "Investigations",
            "soc_code": "10022891",
            "llt_similarity_score": 0.19458049650464915,
            "pt_similarity_score": 0.19458049650464915,
            "Similarity score": 0.19458049650464915
        },
        {
            "llt_code": "10005850",
            "llt_name": "Blood urea decreased",
            "table": "llt",
            "pt_name": "Blood urea decreased",
            "pt_code": "10005850",
            "hlt_name": "Renal function analyses",
            "hlt_code": "10038454",
            "hlgt_name": "Renal and urinary tract investigations and urinalyses",
            "hlgt_code": "10038362",
            "soc_name": "Investigations",
            "soc_code": "10022891",
            "llt_similarity_score": 0.19458049650464915,
            "pt_similarity_score": 0.19458049650464915,
            "Similarity score": 0.19458049650464915
        },
        {
            "llt_code": "10005619",
            "llt_name": "Blood iron decreased",
            "table": "llt",
            "pt_name": "Blood iron decreased",
            "pt_code": "10005619",
            "hlt_name": "Mineral and electrolyte analyses",
            "hlt_code": "10027637",
            "hlgt_name": "Water, electrolyte and mineral investigations",
            "hlgt_code": "10047843",
            "soc_name": "Investigations",
            "soc_code": "10022891",
            "llt_similarity_score": 0.19458049650464915,
            "pt_similarity_score": 0.19458049650464915,
            "Similarity score": 0.19458049650464915
        },
        {
            "llt_code": "10005641",
            "llt_name": "Blood lead decreased",
            "table": "llt",
            "pt_name": "Blood lead decreased",
            "pt_code": "10005641",
            "hlt_name": "Toxicology laboratory analyses",
            "hlt_code": "10044261",
            "hlgt_name": "Toxicology and therapeutic drug monitoring",
            "hlgt_code": "10044260",
            "soc_name": "Investigations",
            "soc_code": "10022891",
            "llt_similarity_score": 0.19458049650464915,
            "pt_similarity_score": 0.19458049650464915,
            "Similarity score": 0.19458049650464915
        },
        {
            "llt_code": "10005734",
            "llt_name": "Blood pressure decreased",
            "table": "llt",
            "pt_name": "Blood pressure decreased",
            "pt_code": "10005734",
            "hlt_name": "Vascular tests NEC (incl blood pressure)",
            "hlt_code": "10047110",
            "hlgt_name": "Cardiac and vascular investigations (excl enzyme tests)",
            "hlgt_code": "10007512",
            "soc_name": "Investigations",
            "soc_code": "10022891",
            "llt_similarity_score": 0.19458049650464915,
            "pt_similarity_score": 0.19458049650464915,
            "Similarity score": 0.19458049650464915
        },
        {
            "llt_code": "10011958",
            "llt_name": "Decreased blood sugar",
            "table": "llt",
            "pt_name": "Blood glucose decreased",
            "pt_code": "10005555",
            "hlt_name": "Carbohydrate tolerance analyses (incl diabetes)",
            "hlt_code": "10007217",
            "hlgt_name": "Metabolic, nutritional and blood gas investigations",
            "hlgt_code": "10027432",
            "soc_name": "Investigations",
            "soc_code": "10022891",
            "llt_similarity_score": 0.19458049650464915,
            "pt_similarity_score": 0.19458049650464915,
            "Similarity score": 0.19458049650464915
        },
        {
            "llt_code": "10042445",
            "llt_name": "Sugar blood decreased",
            "table": "llt",
            "pt_name": "Blood glucose decreased",
            "pt_code": "10005555",
            "hlt_name": "Carbohydrate tolerance analyses (incl diabetes)",
            "hlt_code": "10007217",
            "hlgt_name": "Metabolic, nutritional and blood gas investigations",
            "hlgt_code": "10027432",
            "soc_name": "Investigations",
            "soc_code": "10022891",
            "llt_similarity_score": 0.19458049650464915,
            "pt_similarity_score": 0.19458049650464915,
            "Similarity score": 0.19458049650464915
        },
        {
            "llt_code": "10005808",
            "llt_name": "Blood sugar decreased",
            "table": "llt",
            "pt_name": "Blood glucose decreased",
            "pt_code": "10005555",
            "hlt_name": "Carbohydrate tolerance analyses (incl diabetes)",
            "hlt_code": "10007217",
            "hlgt_name": "Metabolic, nutritional and blood gas investigations",
            "hlgt_code": "10027432",
            "soc_name": "Investigations",
            "soc_code": "10022891",
            "llt_similarity_score": 0.19458049650464915,
            "pt_similarity_score": 0.19458049650464915,
            "Similarity score": 0.19458049650464915
        },
        {
            "llt_code": "10005779",
            "llt_name": "Blood prolactin decreased",
            "table": "llt",
            "pt_name": "Blood prolactin decreased",
            "pt_code": "10005779",
            "hlt_name": "Pituitary analyses anterior",
            "hlt_code": "10035089",
            "hlgt_name": "Endocrine investigations (incl sex hormones)",
            "hlgt_code": "10014706",
            "soc_name": "Investigations",
            "soc_code": "10022891",
            "llt_similarity_score": 0.19458049650464915,
            "pt_similarity_score": 0.19458049650464915,
            "Similarity score": 0.19458049650464915
        },
        {
            "llt_code": "10005442",
            "llt_name": "Blood copper decreased",
            "table": "llt",
            "pt_name": "Blood copper decreased",
            "pt_code": "10005442",
            "hlt_name": "Mineral and electrolyte analyses",
            "hlt_code": "10027637",
            "hlgt_name": "Water, electrolyte and mineral investigations",
            "hlgt_code": "10047843",
            "soc_name": "Investigations",
            "soc_code": "10022891",
            "llt_similarity_score": 0.19458049650464915,
            "pt_similarity_score": 0.19458049650464915,
            "Similarity score": 0.19458049650464915
        },
        {
            "llt_code": "10005463",
            "llt_name": "Blood creatine decreased",
            "table": "llt",
            "pt_name": "Blood creatine decreased",
            "pt_code": "10005463",
            "hlt_name": "Renal function analyses",
            "hlt_code": "10038454",
            "hlgt_name": "Renal and urinary tract investigations and urinalyses",
            "hlgt_code": "10038362",
            "soc_name": "Investigations",
            "soc_code": "10022891",
            "llt_similarity_score": 0.19458049650464915,
            "pt_similarity_score": 0.19458049650464915,
            "Similarity score": 0.19458049650464915
        },
        {
            "llt_code": "10041265",
            "llt_name": "Sodium blood decreased",
            "table": "llt",
            "pt_name": "Blood sodium decreased",
            "pt_code": "10005802",
            "hlt_name": "Mineral and electrolyte analyses",
            "hlt_code": "10027637",
            "hlgt_name": "Water, electrolyte and mineral investigations",
            "hlgt_code": "10047843",
            "soc_name": "Investigations",
            "soc_code": "10022891",
            "llt_similarity_score": 0.19458049650464915,
            "pt_similarity_score": 0.19458049650464915,
            "Similarity score": 0.19458049650464915
        },
        {
            "llt_code": "10005527",
            "llt_name": "Blood folate decreased",
            "table": "llt",
            "pt_name": "Blood folate decreased",
            "pt_code": "10005527",
            "hlt_name": "Vitamin analyses",
            "hlt_code": "10047598",
            "hlgt_name": "Metabolic, nutritional and blood gas investigations",
            "hlgt_code": "10027432",
            "soc_name": "Investigations",
            "soc_code": "10022891",
            "llt_similarity_score": 0.19458049650464915,
            "pt_similarity_score": 0.19458049650464915,
            "Similarity score": 0.19458049650464915
        },
        {
            "llt_code": "10005802",
            "llt_name": "Blood sodium decreased",
            "table": "llt",
            "pt_name": "Blood sodium decreased",
            "pt_code": "10005802",
            "hlt_name": "Mineral and electrolyte analyses",
            "hlt_code": "10027637",
            "hlgt_name": "Water, electrolyte and mineral investigations",
            "hlgt_code": "10047843",
            "soc_name": "Investigations",
            "soc_code": "10022891",
            "llt_similarity_score": 0.19458049650464915,
            "pt_similarity_score": 0.19458049650464915,
            "Similarity score": 0.19458049650464915
        },
        {
            "llt_code": "10047689",
            "llt_name": "Volume blood decreased",
            "table": "llt",
            "pt_name": "Volume blood decreased",
            "pt_code": "10047689",
            "hlt_name": "Water and electrolyte analyses NEC",
            "hlt_code": "10047834",
            "hlgt_name": "Water, electrolyte and mineral investigations",
            "hlgt_code": "10047843",
            "soc_name": "Investigations",
            "soc_code": "10022891",
            "llt_similarity_score": 0.19458049650464915,
            "pt_similarity_score": 0.19458049650464915,
            "Similarity score": 0.19458049650464915
        },
        {
            "llt_code": "10005375",
            "llt_name": "Blood bromide decreased",
            "table": "llt",
            "pt_name": "Blood bromide decreased",
            "pt_code": "10005375",
            "hlt_name": "Therapeutic drug monitoring analyses",
            "hlt_code": "10043411",
            "hlgt_name": "Toxicology and therapeutic drug monitoring",
            "hlgt_code": "10044260",
            "soc_name": "Investigations",
            "soc_code": "10022891",
            "llt_similarity_score": 0.19458049650464915,
            "pt_similarity_score": 0.19458049650464915,
            "Similarity score": 0.19458049650464915
        },
        {
            "llt_code": "10005774",
            "llt_name": "Blood proinsulin decreased",
            "table": "llt",
            "pt_name": "Blood proinsulin decreased",
            "pt_code": "10005774",
            "hlt_name": "Gastrointestinal, pancreatic and APUD hormone analyses",
            "hlt_code": "10018034",
            "hlgt_name": "Endocrine investigations (incl sex hormones)",
            "hlgt_code": "10014706",
            "soc_name": "Investigations",
            "soc_code": "10022891",
            "llt_similarity_score": 0.19458049650464915,
            "pt_similarity_score": 0.19458049650464915,
            "Similarity score": 0.19458049650464915
        },
        {
            "llt_code": "10005514",
            "llt_name": "Blood ethanol decreased",
            "table": "llt",
            "pt_name": "Blood ethanol decreased",
            "pt_code": "10005514",
            "hlt_name": "Toxicology laboratory analyses",
            "hlt_code": "10044261",
            "hlgt_name": "Toxicology and therapeutic drug monitoring",
            "hlgt_code": "10044260",
            "soc_name": "Investigations",
            "soc_code": "10022891",
            "llt_similarity_score": 0.19458049650464915,
            "pt_similarity_score": 0.19458049650464915,
            "Similarity score": 0.19458049650464915
        },
        {
            "llt_code": "10005544",
            "llt_name": "Blood gastrin decreased",
            "table": "llt",
            "pt_name": "Blood gastrin decreased",
            "pt_code": "10005544",
            "hlt_name": "Gastrointestinal, pancreatic and APUD hormone analyses",
            "hlt_code": "10018034",
            "hlgt_name": "Endocrine investigations (incl sex hormones)",
            "hlgt_code": "10014706",
            "soc_name": "Investigations",
            "soc_code": "10022891",
            "llt_similarity_score": 0.19458049650464915,
            "pt_similarity_score": 0.19458049650464915,
            "Similarity score": 0.19458049650464915
        },
        {
            "llt_code": "10005379",
            "llt_name": "Blood cadmium decreased",
            "table": "llt",
            "pt_name": "Blood cadmium decreased",
            "pt_code": "10005379",
            "hlt_name": "Toxicology laboratory analyses",
            "hlt_code": "10044261",
            "hlgt_name": "Toxicology and therapeutic drug monitoring",
            "hlgt_code": "10044260",
            "soc_name": "Investigations",
            "soc_code": "10022891",
            "llt_similarity_score": 0.19458049650464915,
            "pt_similarity_score": 0.19458049650464915,
            "Similarity score": 0.19458049650464915
        },
        {
            "llt_code": "10024413",
            "llt_name": "LH blood decreased",
            "table": "llt",
            "pt_name": "Blood luteinising hormone decreased",
            "pt_code": "10005648",
            "hlt_name": "Pituitary analyses anterior",
            "hlt_code": "10035089",
            "hlgt_name": "Endocrine investigations (incl sex hormones)",
            "hlgt_code": "10014706",
            "soc_name": "Investigations",
            "soc_code": "10022891",
            "llt_similarity_score": 0.19458049650464915,
            "pt_similarity_score": 0.17999518987249202,
            "Similarity score": 0.1916634351782177
        },
        {
            "llt_code": "10067406",
            "llt_name": "SP-A increased",
            "table": "llt",
            "pt_name": "Surfactant protein increased",
            "pt_code": "10067402",
            "hlt_name": "Protein analyses NEC",
            "hlt_code": "10036998",
            "hlgt_name": "Protein and chemistry analyses NEC",
            "hlgt_code": "10037000",
            "soc_name": "Investigations",
            "soc_code": "10022891",
            "llt_similarity_score": 0.18505668698083966,
            "pt_similarity_score": 0.18505668698083966,
            "Similarity score": 0.18505668698083966
        },
        {
            "llt_code": "10064603",
            "llt_name": "Cyclic AMP increased",
            "table": "llt",
            "pt_name": "Cyclic AMP increased",
            "pt_code": "10064603",
            "hlt_name": "Metabolism tests NEC",
            "hlt_code": "10027434",
            "hlgt_name": "Metabolic, nutritional and blood gas investigations",
            "hlgt_code": "10027432",
            "soc_name": "Investigations",
            "soc_code": "10022891",
            "llt_similarity_score": 0.18505668698083966,
            "pt_similarity_score": 0.18505668698083966,
            "Similarity score": 0.18505668698083966
        },
        {
            "llt_code": "10053891",
            "llt_name": "Venous blood pH decreased",
            "table": "llt",
            "pt_name": "Blood pH decreased",
            "pt_code": "10005706",
            "hlt_name": "Blood gas and acid base analyses",
            "hlt_code": "10005536",
            "hlgt_name": "Metabolic, nutritional and blood gas investigations",
            "hlgt_code": "10027432",
            "soc_name": "Investigations",
            "soc_code": "10022891",
            "llt_similarity_score": 0.17999518987249202,
            "pt_similarity_score": 0.19458049650464915,
            "Similarity score": 0.18291225119892346
        },
        {
            "llt_code": "10053889",
            "llt_name": "Arterial blood pH decreased",
            "table": "llt",
            "pt_name": "Blood pH decreased",
            "pt_code": "10005706",
            "hlt_name": "Blood gas and acid base analyses",
            "hlt_code": "10005536",
            "hlgt_name": "Metabolic, nutritional and blood gas investigations",
            "hlgt_code": "10027432",
            "soc_name": "Investigations",
            "soc_code": "10022891",
            "llt_similarity_score": 0.17999518987249202,
            "pt_similarity_score": 0.19458049650464915,
            "Similarity score": 0.18291225119892346
        },
        {
            "llt_code": "10049828",
            "llt_name": "Blood HIV RNA decreased",
            "table": "llt",
            "pt_name": "Blood HIV RNA decreased",
            "pt_code": "10049828",
            "hlt_name": "Virus identification and serology",
            "hlt_code": "10047490",
            "hlgt_name": "Microbiology and serology investigations",
            "hlgt_code": "10027529",
            "soc_name": "Investigations",
            "soc_code": "10022891",
            "llt_similarity_score": 0.17999518987249202,
            "pt_similarity_score": 0.17999518987249202,
            "Similarity score": 0.17999518987249202
        },
        {
            "llt_code": "10054887",
            "llt_name": "Blood phosphorus normal",
            "table": "llt",
            "pt_name": "Blood phosphorus normal",
            "pt_code": "10054887",
            "hlt_name": "Mineral and electrolyte analyses",
            "hlt_code": "10027637",
            "hlgt_name": "Water, electrolyte and mineral investigations",
            "hlgt_code": "10047843",
            "soc_name": "Investigations",
            "soc_code": "10022891",
            "llt_similarity_score": 0.17553287745703008,
            "pt_similarity_score": 0.17553287745703008,
            "Similarity score": 0.17553287745703008
        },
        {
            "llt_code": "10039381",
            "llt_name": "Saliva increased",
            "table": "llt",
            "pt_name": "Salivary hypersecretion",
            "pt_code": "10039424",
            "hlt_name": "Oral dryness and saliva altered",
            "hlt_code": "10030975",
            "hlgt_name": "Salivary gland conditions",
            "hlgt_code": "10039404",
            "soc_name": "Gastrointestinal disorders",
            "soc_code": "10017947",
            "llt_similarity_score": 0.2095238095238095,
            "pt_similarity_score": 0.009523809523809523,
            "Similarity score": 0.1695238095238095
        },
        {
            "llt_code": "10021682",
            "llt_name": "Increased SOB",
            "table": "llt",
            "pt_name": "Dyspnoea",
            "pt_code": "10013968",
            "hlt_name": "Dyspnoeas",
            "hlt_code": "10013975",
            "hlgt_name": "Cardiac disorders, signs and symptoms NEC",
            "hlgt_code": "10082206",
            "soc_name": "Cardiac disorders",
            "soc_code": "10007541",
            "llt_similarity_score": 0.2095238095238095,
            "pt_similarity_score": 0.0,
            "Similarity score": 0.16761904761904758
        },
        {
            "llt_code": "10005327",
            "llt_name": "Blood amylase decreased",
            "table": "llt",
            "pt_name": "Amylase decreased",
            "pt_code": "10002014",
            "hlt_name": "Digestive enzymes",
            "hlt_code": "10012981",
            "hlgt_name": "Gastrointestinal investigations",
            "hlgt_code": "10017971",
            "soc_name": "Investigations",
            "soc_code": "10022891",
            "llt_similarity_score": 0.19458049650464915,
            "pt_similarity_score": 0.057142857142857134,
            "Similarity score": 0.16709296863229073
        },
        {
            "llt_code": "10024589",
            "llt_name": "Lipids blood decreased",
            "table": "llt",
            "pt_name": "Lipids decreased",
            "pt_code": "10024591",
            "hlt_name": "Lipoprotein and lipid tests NEC",
            "hlt_code": "10024624",
            "hlgt_name": "Lipid analyses",
            "hlgt_code": "10024580",
            "soc_name": "Investigations",
            "soc_code": "10022891",
            "llt_similarity_score": 0.19458049650464915,
            "pt_similarity_score": 0.057142857142857134,
            "Similarity score": 0.16709296863229073
        },
        {
            "llt_code": "10034930",
            "llt_name": "Phosphate decreased",
            "table": "llt",
            "pt_name": "Blood phosphorus decreased",
            "pt_code": "10049471",
            "hlt_name": "Mineral and electrolyte analyses",
            "hlt_code": "10027637",
            "hlgt_name": "Water, electrolyte and mineral investigations",
            "hlgt_code": "10047843",
            "soc_name": "Investigations",
            "soc_code": "10022891",
            "llt_similarity_score": 0.11428571428571427,
            "pt_similarity_score": 0.23267573459988725,
            "Similarity score": 0.13796371834854887
        },
        {
            "llt_code": "10055065",
            "llt_name": "Urine phosphorus decreased",
            "table": "llt",
            "pt_name": "Urine phosphorus decreased",
            "pt_code": "10055065",
            "hlt_name": "Mineral and electrolyte analyses",
            "hlt_code": "10027637",
            "hlgt_name": "Water, electrolyte and mineral investigations",
            "hlgt_code": "10047843",
            "soc_name": "Investigations",
            "soc_code": "10022891",
            "llt_similarity_score": 0.09523809523809523,
            "pt_similarity_score": 0.09523809523809523,
            "Similarity score": 0.09523809523809523
        },
        {
            "llt_code": "10034938",
            "llt_name": "Phospholipid decreased",
            "table": "llt",
            "pt_name": "Lipids decreased",
            "pt_code": "10024591",
            "hlt_name": "Lipoprotein and lipid tests NEC",
            "hlt_code": "10024624",
            "hlgt_name": "Lipid analyses",
            "hlgt_code": "10024580",
            "soc_name": "Investigations",
            "soc_code": "10022891",
            "llt_similarity_score": 0.09523809523809523,
            "pt_similarity_score": 0.057142857142857134,
            "Similarity score": 0.08761904761904761
        }
    ]
}